<?xml version="1.0" encoding="UTF-8"?>
<session version="1.0">
<refactoring comment="Move &apos;plantPlusR2.cif&apos; to &apos;rover&apos;" description="Move &apos;plantPlusR2.cif&apos; to &apos;rover&apos;" destination="/rover" element1="plant/plantPlusR2.cif" flags="7" id="org.eclipse.ltk.core.refactoring.move.resources" resources="1" stamp="1651499799908" updateReferences="true"/>
</session>